Project 1: Exploratory Data Analysis
…
# Tidying

tidy <- good %>% pivot_wider(names_from = "ages", values_from = "population")
tidy %>% pivot_longer(c("under18", "total"), names_to = "ages", 
    values_to = "population")

## # A tibble: 2,544 x 5
##    State   Abbreviation  year ages    population
##    <chr>   <chr>        <dbl> <chr>        <dbl>
##  1 Alabama AL            2012 under18    1117489
##  2 Alabama AL            2012 total      4817528
##  3 Alabama AL            2010 under18    1130966
##  4 Alabama AL            2010 total      4785570
##  5 Alabama AL            2011 under18    1125763
##  6 Alabama AL            2011 total      4801627
##  7 Alabama AL            2009 under18    1134192
##  8 Alabama AL            2009 total      4757938
##  9 Alabama AL            2013 under18    1111481
## 10 Alabama AL            2013 total      4833722
## # … with 2,534 more rows

tidy2 <- state_areas %>% pivot_wider(names_from = "state", values_from = "area (sq. mi)")
tidy2 %>% pivot_longer(everything(), names_to = "state")

## # A tibble: 52 x 2
##    state        value
##    <chr>        <dbl>
##  1 Alabama      52423
##  2 Alaska      656425
##  3 Arizona     114006
##  4 Arkansas     53182
##  5 California  163707
##  6 Colorado    104100
##  7 Connecticut   5544
##  8 Delaware      1954
##  9 Florida      65758
## 10 Georgia      59441
## # … with 42 more rows

# On each dataset, I first used pivot wider to make them
# untidy. Then, I used pivot longer to tidy them again, where
# each observation has its own row and every variable has its
# own column.

# Wrangling

# Population variable

mutate(MERGED, new = population/year)

## # A tibble: 2,545 x 7
##    State   Abbreviation ages     year population `area (sq. mi)`   new
##    <chr>   <chr>        <chr>   <dbl>      <dbl>           <dbl> <dbl>
##  1 Alabama AL           under18  2012    1117489           52423  555.
##  2 Alabama AL           total    2012    4817528           52423 2394.
##  3 Alabama AL           under18  2010    1130966           52423  563.
##  4 Alabama AL           total    2010    4785570           52423 2381.
##  5 Alabama AL           under18  2011    1125763           52423  560.
##  6 Alabama AL           total    2011    4801627           52423 2388.
##  7 Alabama AL           total    2009    4757938           52423 2368.
##  8 Alabama AL           under18  2009    1134192           52423  565.
##  9 Alabama AL           under18  2013    1111481           52423  552.
## 10 Alabama AL           total    2013    4833722           52423 2401.
## # … with 2,535 more rows

MERGED %>% mutate(meanp = mean(population, na.rm = T))

## # A tibble: 2,545 x 7
##    State   Abbreviation ages     year population `area (sq. mi)`    meanp
##    <chr>   <chr>        <chr>   <dbl>      <dbl>           <dbl>    <dbl>
##  1 Alabama AL           under18  2012    1117489           52423 6805558.
##  2 Alabama AL           total    2012    4817528           52423 6805558.
##  3 Alabama AL           under18  2010    1130966           52423 6805558.
##  4 Alabama AL           total    2010    4785570           52423 6805558.
##  5 Alabama AL           under18  2011    1125763           52423 6805558.
##  6 Alabama AL           total    2011    4801627           52423 6805558.
##  7 Alabama AL           total    2009    4757938           52423 6805558.
##  8 Alabama AL           under18  2009    1134192           52423 6805558.
##  9 Alabama AL           under18  2013    1111481           52423 6805558.
## 10 Alabama AL           total    2013    4833722           52423 6805558.
## # … with 2,535 more rows

MERGED %>% summarise(meanpopulaton = mean(population, na.rm = T))

## # A tibble: 1 x 1
##   meanpopulaton
##           <dbl>
## 1      6805558.

MERGED %>% filter(population < mean(population, na.rm = T))

## # A tibble: 2,168 x 6
##    State   Abbreviation ages     year population `area (sq. mi)`
##    <chr>   <chr>        <chr>   <dbl>      <dbl>           <dbl>
##  1 Alabama AL           under18  2012    1117489           52423
##  2 Alabama AL           total    2012    4817528           52423
##  3 Alabama AL           under18  2010    1130966           52423
##  4 Alabama AL           total    2010    4785570           52423
##  5 Alabama AL           under18  2011    1125763           52423
##  6 Alabama AL           total    2011    4801627           52423
##  7 Alabama AL           total    2009    4757938           52423
##  8 Alabama AL           under18  2009    1134192           52423
##  9 Alabama AL           under18  2013    1111481           52423
## 10 Alabama AL           total    2013    4833722           52423
## # … with 2,158 more rows

MERGED %>% filter(population > mean(population, na.rm = T))

## # A tibble: 356 x 6
##    State      Abbreviation ages     year population `area (sq. mi)`
##    <chr>      <chr>        <chr>   <dbl>      <dbl>           <dbl>
##  1 California CA           under18  2012    9209007          163707
##  2 California CA           total    2012   37999878          163707
##  3 California CA           under18  2011    9252336          163707
##  4 California CA           total    2011   37668681          163707
##  5 California CA           under18  2010    9284094          163707
##  6 California CA           total    2010   37333601          163707
##  7 California CA           under18  2013    9174877          163707
##  8 California CA           total    2013   38332521          163707
##  9 California CA           total    2009   36961229          163707
## 10 California CA           under18  2009    9294501          163707
## # … with 346 more rows

MERGED %>% filter(population < mean(population, na.rm = T)) %>% 
    select(State)

## # A tibble: 2,168 x 1
##    State  
##    <chr>  
##  1 Alabama
##  2 Alabama
##  3 Alabama
##  4 Alabama
##  5 Alabama
##  6 Alabama
##  7 Alabama
##  8 Alabama
##  9 Alabama
## 10 Alabama
## # … with 2,158 more rows

MERGED %>% filter(population > mean(population, na.rm = T)) %>% 
    select(State)

## # A tibble: 356 x 1
##    State     
##    <chr>     
##  1 California
##  2 California
##  3 California
##  4 California
##  5 California
##  6 California
##  7 California
##  8 California
##  9 California
## 10 California
## # … with 346 more rows

MERGED %>% summarise(sdpop = sd(population, na.rm = T))

## # A tibble: 1 x 1
##       sdpop
##       <dbl>
## 1 28550145.

MERGED %>% filter(population < sd(population, na.rm = T))

## # A tibble: 2,452 x 6
##    State   Abbreviation ages     year population `area (sq. mi)`
##    <chr>   <chr>        <chr>   <dbl>      <dbl>           <dbl>
##  1 Alabama AL           under18  2012    1117489           52423
##  2 Alabama AL           total    2012    4817528           52423
##  3 Alabama AL           under18  2010    1130966           52423
##  4 Alabama AL           total    2010    4785570           52423
##  5 Alabama AL           under18  2011    1125763           52423
##  6 Alabama AL           total    2011    4801627           52423
##  7 Alabama AL           total    2009    4757938           52423
##  8 Alabama AL           under18  2009    1134192           52423
##  9 Alabama AL           under18  2013    1111481           52423
## 10 Alabama AL           total    2013    4833722           52423
## # … with 2,442 more rows

MERGED %>% filter(population > sd(population, na.rm = T))

## # A tibble: 72 x 6
##    State      Abbreviation ages   year population `area (sq. mi)`
##    <chr>      <chr>        <chr> <dbl>      <dbl>           <dbl>
##  1 California CA           total  2012   37999878          163707
##  2 California CA           total  2011   37668681          163707
##  3 California CA           total  2010   37333601          163707
##  4 California CA           total  2013   38332521          163707
##  5 California CA           total  2009   36961229          163707
##  6 California CA           total  2007   36250311          163707
##  7 California CA           total  2008   36604337          163707
##  8 California CA           total  2005   35827943          163707
##  9 California CA           total  2006   36021202          163707
## 10 California CA           total  2003   35253159          163707
## # … with 62 more rows

MERGED %>% filter(population < sd(population, na.rm = T)) %>% 
    select(State)

## # A tibble: 2,452 x 1
##    State  
##    <chr>  
##  1 Alabama
##  2 Alabama
##  3 Alabama
##  4 Alabama
##  5 Alabama
##  6 Alabama
##  7 Alabama
##  8 Alabama
##  9 Alabama
## 10 Alabama
## # … with 2,442 more rows

MERGED %>% filter(population > sd(population, na.rm = T)) %>% 
    select(State)

## # A tibble: 72 x 1
##    State     
##    <chr>     
##  1 California
##  2 California
##  3 California
##  4 California
##  5 California
##  6 California
##  7 California
##  8 California
##  9 California
## 10 California
## # … with 62 more rows
…
## # A tibble: 1 x 1
##   minpop
##    <dbl>
## 1 101309

MERGED %>% filter(population < min(population, na.rm = T))

## # A tibble: 0 x 6
## # … with 6 variables: State <chr>, Abbreviation <chr>, ages <chr>, year <dbl>,
## #   population <dbl>, `area (sq. mi)` <dbl>

MERGED %>% filter(population > min(population, na.rm = T))

## # A tibble: 2,523 x 6
##    State   Abbreviation ages     year population `area (sq. mi)`
##    <chr>   <chr>        <chr>   <dbl>      <dbl>           <dbl>
##  1 Alabama AL           under18  2012    1117489           52423
##  2 Alabama AL           total    2012    4817528           52423
##  3 Alabama AL           under18  2010    1130966           52423
##  4 Alabama AL           total    2010    4785570           52423
##  5 Alabama AL           under18  2011    1125763           52423
##  6 Alabama AL           total    2011    4801627           52423
##  7 Alabama AL           total    2009    4757938           52423
##  8 Alabama AL           under18  2009    1134192           52423
##  9 Alabama AL           under18  2013    1111481           52423
## 10 Alabama AL           total    2013    4833722           52423
## # … with 2,513 more rows

MERGED %>% filter(population < min(population, na.rm = T)) %>% 
    select(State)

## # A tibble: 0 x 1
## # … with 1 variable: State <chr>

MERGED %>% filter(population > min(population, na.rm = T)) %>% 
    select(State)

## # A tibble: 2,523 x 1
##    State  
##    <chr>  
##  1 Alabama
##  2 Alabama
##  3 Alabama
##  4 Alabama
##  5 Alabama
##  6 Alabama
##  7 Alabama
##  8 Alabama
##  9 Alabama
## 10 Alabama
## # … with 2,513 more rows

MERGED %>% summarise(maxpop = max(population, na.rm = T))

## # A tibble: 1 x 1
##      maxpop
##       <dbl>
## 1 316128839

MERGED %>% filter(population < max(population, na.rm = T))

## # A tibble: 2,523 x 6
##    State   Abbreviation ages     year population `area (sq. mi)`
##    <chr>   <chr>        <chr>   <dbl>      <dbl>           <dbl>
##  1 Alabama AL           under18  2012    1117489           52423
##  2 Alabama AL           total    2012    4817528           52423
##  3 Alabama AL           under18  2010    1130966           52423
##  4 Alabama AL           total    2010    4785570           52423
##  5 Alabama AL           under18  2011    1125763           52423
##  6 Alabama AL           total    2011    4801627           52423
##  7 Alabama AL           total    2009    4757938           52423
##  8 Alabama AL           under18  2009    1134192           52423
##  9 Alabama AL           under18  2013    1111481           52423
## 10 Alabama AL           total    2013    4833722           52423
## # … with 2,513 more rows

MERGED %>% filter(population > max(population, na.rm = T))

## # A tibble: 0 x 6
## # … with 6 variables: State <chr>, Abbreviation <chr>, ages <chr>, year <dbl>,
## #   population <dbl>, `area (sq. mi)` <dbl>

MERGED %>% filter(population < max(population, na.rm = T)) %>% 
    select(State)

## # A tibble: 2,523 x 1
##    State  
##    <chr>  
##  1 Alabama
##  2 Alabama
##  3 Alabama
##  4 Alabama
##  5 Alabama
##  6 Alabama
##  7 Alabama
##  8 Alabama
##  9 Alabama
## 10 Alabama
## # … with 2,513 more rows
…
# Area (sq. mi)

MERGED %>% group_by(State) %>% summarise(mean = mean("area (sq. mi)"), 
    n = n())

## # A tibble: 53 x 3
##    State                 mean     n
##    <chr>                <dbl> <int>
##  1 Alabama                 NA    48
##  2 Alaska                  NA    48
##  3 Arizona                 NA    48
##  4 Arkansas                NA    48
##  5 California              NA    48
##  6 Colorado                NA    48
##  7 Connecticut             NA    48
##  8 Delaware                NA    48
##  9 District of Columbia    NA    48
## 10 Florida                 NA    48
## # … with 43 more rows
…
